%YAML 1.1
%TAG !u! tag:unity3d.com,2011:
--- !u!1045 &1
EditorBuildSettings:
  m_ObjectHideFlags: 0
  serializedVersion: 2
  m_Scenes:
  - enabled: 1
    path: Assets/Scenes/Menu.unity
    guid: 7b3c3bac53b17f14d9acd310c79e2ad9
  - enabled: 1
    path: Assets/Scenes/Juego.unity
    guid: 9fc0d4010bbf28b4594072e72b8655ab
  - enabled: 1
    path: Assets/Scenes/Creditos.unity
    guid: f4703e73a80355a4b90e54262b3c614f
  m_configObjects: {}
